password_tb.vcd
$date
	Sun Nov  7 18:04:30 2021
$end
$version
	Icarus Verilog
$end
$timescale
	1s
$end
$scope module airConditioning $end
$var wire 1 ! airConditioner $end
$var wire 2 " fan_speed [1:0] $end
$var wire 1 # heater $end
$var wire 1 $ humanDetector $end
$var wire 8 % temperature [7:0] $end
$upscope $end
$scope module burglar_alarm $end
$var wire 3 & alarmEnable [2:0] $end
$var wire 3 ' doorState [2:0] $end
$var wire 1 ( garageLocked $end
$var wire 1 ) garageState $end
$var wire 1 * homeLocked $end
$var wire 3 + windowState [2:0] $end
$upscope $end
$scope module demux_8 $end
$var wire 17 , inp [16:0] $end
$var wire 136 - out [135:0] $end
$var wire 3 . sel [2:0] $end
$upscope $end
$scope module fire_alarm $end
$var wire 1 / alarmEnable $end
$var wire 3 0 smoke_detector [2:0] $end
$upscope $end
$scope module kitchen $end
$var wire 1 1 chimney $end
$var wire 1 2 stove_state $end
$upscope $end
$scope module lighting $end
$var wire 1 3 light $end
$var wire 3 4 luminosity [2:0] $end
$var wire 1 5 motionSensor $end
$upscope $end
$scope module mux_2 $end
$var wire 1 6 a $end
$var wire 1 7 b $end
$var wire 1 8 sel $end
$var wire 1 9 out $end
$upscope $end
$scope module mux_8 $end
$var wire 8 : inp [7:0] $end
$var wire 3 ; sel [2:0] $end
$var wire 1 < out $end
$upscope $end
$scope module password_tb $end
$var wire 1 = unlock $end
$var wire 1 > alarm $end
$var reg 17 ? change_password [16:0] $end
$var reg 1 @ e_buttonState $end
$var reg 17 A in_password [16:0] $end
$var reg 1 B rsbuttonState $end
$scope module x $end
$var wire 17 C change_password [16:0] $end
$var wire 1 @ e_buttonState $end
$var wire 17 D in_password [16:0] $end
$var wire 1 B rs_buttonState $end
$var reg 1 > alarm $end
$var reg 17 E password [16:0] $end
$var reg 17 F unique_key [16:0] $end
$var reg 1 = unlock $end
$var integer 32 G count [31:0] $end
$upscope $end
$upscope $end
$scope module smart_home $end
$var wire 51 H change_password [50:0] $end
$var wire 3 I doorEnable [2:0] $end
$var wire 3 J doorState [2:0] $end
$var wire 3 K e_buttonState [2:0] $end
$var wire 1 L garageState $end
$var wire 3 M humanDetector [2:0] $end
$var wire 51 N in_password [50:0] $end
$var wire 9 O luminosity [8:0] $end
$var wire 3 P motionSensor [2:0] $end
$var wire 3 Q rs_buttonState [2:0] $end
$var wire 3 R smokeDetector [2:0] $end
$var wire 1 S stove_state $end
$var wire 24 T temperature [23:0] $end
$var wire 3 U windowState [2:0] $end
$upscope $end
$enddefinitions $end
#0
$dumpvars
bz U
bz T
zS
bz R
bz Q
bz P
bz O
bz N
bz M
zL
bz K
bz J
bz I
bz H
b0 G
b1011001001101011 F
b1011001001101011 E
b1011001001101011 D
b10011010001101010 C
1B
b1011001001101011 A
0@
b10011010001101010 ?
0>
0=
x<
bz ;
bz :
z9
z8
z7
z6
z5
bz 4
z3
z2
z1
bz 0
z/
bz .
bz -
bz ,
bz +
z*
z)
z(
bz '
bz &
bz %
z$
z#
bz "
z!
$end
#5
b10011010001101010 E
1@
#10
0@
0B
#15
1=
1@
b10011010001101010 A
b10011010001101010 D
#16
0=
#20
0@
b101101 A
b101101 D
#25
b1 G
1@
#30
0@
#35
b10 G
1@
#40
0@
#45
b11 G
1@
#50
0@
#55
1>
b100 G
1@
#56
0>
